// Jest Snapshot v1, https://goo.gl/fbAQLP

exports[`renders Button correctly 1`] = `
<div
  className={undefined}
  data-test-id="button"
  onClick={undefined}
>
  <div
    className={undefined}
  >
    <span />
  </div>
</div>
`;

exports[`renders Button with a label 1`] = `
<div
  className={undefined}
  data-test-id="button"
  onClick={undefined}
>
  <div
    className={undefined}
  >
    <span>
      test label
    </span>
  </div>
</div>
`;

exports[`renders Button with a loadingSpinner 1`] = `
<div
  className={undefined}
  data-test-id="button"
  onClick={undefined}
>
  <div
    className={undefined}
  >
    <div
      className={undefined}
      data-test-id="loadingspinner-icon"
    >
      <div
        className="undefined undefined"
      />
    </div>
    <span>
      test progressLabel
    </span>
  </div>
</div>
`;

exports[`renders Button with an action 1`] = `
<div
  className={undefined}
  data-test-id="button"
  onClick={[Function]}
>
  <div
    className={undefined}
  >
    <span />
  </div>
</div>
`;
