// Jest Snapshot v1, https://goo.gl/fbAQLP

exports[`renders Devices correctly 1`] = `
<div
  className={undefined}
  data-test-id="devices-page"
>
  <nav
    className={undefined}
  >
    <div
      className="undefined undefined"
      data-test-id="tab-button-current"
      onClick={[Function]}
    >
      Title
    </div>
    <div
      className={undefined}
      data-test-id="tab-button-stopped"
      onClick={[Function]}
    >
      Title
    </div>
  </nav>
  <div
    className={undefined}
  >
    <div
      className="undefined undefined"
    >
      <span
        className={undefined}
        data-test-id="current-devices-header"
      >
        Other Devices
      </span>
      <div>
        <div
          className={undefined}
          data-test-id="device-"
        >
          <div
            className={undefined}
            onClick={[Function]}
          >
            <div
              className="undefined undefined"
              data-test-id="tablet-icon"
            >
              <svg
                height="63px"
                viewBox="34 13 46 63"
                width="46px"
              >
                <g
                  fill="none"
                  fillRule="evenodd"
                  id="Device-icon---Active"
                  stroke="none"
                  strokeWidth="1"
                  transform="translate(34.000000, 13.000000)"
                >
                  <g
                    id="Tablet"
                  >
                    <path
                      d="M2,4.00071403 L2,58.999286 C2,60.1082894 2.89304612,61 4.00172845,61 L41.9982716,61 C43.1053515,61 44,60.1051925 44,58.999286 L44,4.00071403 C44,2.8917106 43.1069539,2 41.9982716,2 L4.00172845,2 C2.89464845,2 2,2.89480755 2,4.00071403 Z M0,4.00071403 C0,1.79118068 1.78913646,0 4.00172845,0 L41.9982716,0 C44.2083651,0 46,1.78398548 46,4.00071403 L46,58.999286 C46,61.2088193 44.2108635,63 41.9982716,63 L4.00172845,63 C1.79163485,63 0,61.2160145 0,58.999286 L0,4.00071403 Z"
                      id="Rectangle-6"
                    />
                    <ellipse
                      cx="23.2"
                      cy="5.21656051"
                      id="Oval"
                      rx="0.8"
                      ry="0.802547771"
                    />
                    <path
                      d="M23,56.5796178 C23.7731986,56.5796178 24.4,55.9508203 24.4,55.1751592 C24.4,54.3994982 23.7731986,53.7707006 23,53.7707006 C22.2268014,53.7707006 21.6,54.3994982 21.6,55.1751592 C21.6,55.9508203 22.2268014,56.5796178 23,56.5796178 Z M23,57.7796178 C21.563204,57.7796178 20.4,56.6127094 20.4,55.1751592 C20.4,53.7376091 21.563204,52.5707006 23,52.5707006 C24.436796,52.5707006 25.6,53.7376091 25.6,55.1751592 C25.6,56.6127094 24.436796,57.7796178 23,57.7796178 Z"
                      id="Oval-10"
                    />
                  </g>
                </g>
              </svg>
              <div
                className={undefined}
              >
                <div
                  className={undefined}
                  data-test-id="checkmark-icon"
                >
                  <svg
                    height="35px"
                    viewBox="0 0 46 35"
                    width="46px"
                  >
                    <g
                      fill="none"
                      fillRule="evenodd"
                      id="Symbols"
                      stroke="none"
                      strokeWidth="1"
                    >
                      <g
                        fill="#7ED321"
                        id="Extensions/Open"
                        transform="translate(-165.000000, -196.000000)"
                      >
                        <g
                          id="Open"
                        >
                          <g
                            id="Desktop"
                            transform="translate(77.000000, 156.000000)"
                          >
                            <g
                              id="Checkmark"
                              transform="translate(88.000000, 39.000000)"
                            >
                              <path
                                d="M18.738387,22.1158415 L9.02180533,13.6693459 C7.76807776,12.5794972 5.88059149,12.7137477 4.79644857,13.9609115 L1.67536242,17.5513104 C0.590621274,18.7991623 0.725233203,20.6899878 1.97469039,21.7761243 L17.5117735,35.2823046 C17.9268505,35.6431256 18.411394,35.8697728 18.9132527,35.966281 C19.9373772,36.1742669 21.0422279,35.8384724 21.7783958,34.9916082 L44.3243047,9.05550677 C45.4120948,7.80414747 45.2822328,5.91161278 44.035069,4.82746987 L40.4446701,1.70638371 C39.1968182,0.621642569 37.3049496,0.757454441 36.2175263,2.00839183 L18.738387,22.1158415 Z"
                              />
                            </g>
                          </g>
                        </g>
                      </g>
                    </g>
                  </svg>
                </div>
              </div>
            </div>
            <div
              className={undefined}
            >
              <strong
                data-test-id="device-name"
              />
              <span
                className={undefined}
                data-test-id="device-status"
              >
                Undefined
              </span>
            </div>
            <div
              className="undefined "
              data-test-id="arrow-icon"
            >
              <svg
                height="21px"
                version="1.1"
                viewBox="0 0 14 21"
                width="14px"
                xmlns="http://www.w3.org/2000/svg"
                xmlnsXlink="http://www.w3.org/1999/xlink"
              >
                <g
                  fill="none"
                  fillRule="evenodd"
                  id="Assets"
                  stroke="none"
                  strokeWidth="1"
                >
                  <g
                    fill="black"
                    id="Icons"
                    transform="translate(-103.000000, -113.000000)"
                  >
                    <g
                      id="Arrow-back"
                      transform="translate(0.000000, 82.000000)"
                    >
                      <path
                        d="M103.297725,40.4795302 L112.479529,31.297726 C112.872976,30.904279 113.505683,30.8990823 113.898898,31.2922979 L116.020491,33.4138905 C116.41094,33.8043396 116.410027,34.4382956 116.015063,34.8332599 L109.656394,41.1919289 L116.015063,47.550598 C116.40851,47.944045 116.413706,48.5767518 116.020491,48.9699674 L113.898898,51.09156 C113.508449,51.4820091 112.874493,51.4810961 112.479529,51.0861319 L103.297725,41.9043277 C103.100098,41.7067014 103.000428,41.44871 103,41.1910249 C103.000368,40.9366004 103.099338,40.677917 103.297725,40.4795302 Z"
                      />
                    </g>
                  </g>
                </g>
              </svg>
            </div>
          </div>
          <div
            className="undefined "
          >
            <p>
              <span
                className={undefined}
                data-test-id="device-installation-header"
              >
                Header
              </span>
              <span
                className={undefined}
                data-test-id="device-activity-header"
              >
                Header
              </span>
              <span
                className={undefined}
                data-test-id="device-no-activity"
              >
                No Activity
              </span>
              <span
                className={undefined}
                data-test-id="device-support-header"
              >
                Header
              </span>
              <span
                className={undefined}
              >
                <a
                  onClick={[Function]}
                  style={Object {}}
                >
                  Installation
                </a>
                , 
                <a
                  onClick={[Function]}
                  style={Object {}}
                >
                  Removal
                </a>
              </span>
            </p>
          </div>
        </div>
      </div>
      <a
        className="button arrow"
        data-test-id="add-device-button"
        onClick={[Function]}
        style={Object {}}
      >
        Add Device
        <div
          className={undefined}
          data-test-id="long-arrow-icon"
        >
          <svg
            height="17px"
            version="1.1"
            viewBox="0 0 21 17"
            width="21px"
            xmlns="http://www.w3.org/2000/svg"
            xmlnsXlink="http://www.w3.org/1999/xlink"
          >
            <g
              fill="none"
              fillRule="evenodd"
              id="Style-guide"
              stroke="none"
              strokeWidth="1"
            >
              <g
                fill="#FFFFFF"
                id="Icons"
                transform="translate(-101.000000, -610.000000)"
              >
                <g
                  id="Background"
                >
                  <path
                    d="M115.479261,610.581767 L121.463068,617.097554 C121.821023,617.457474 122,617.947709 122,618.487589 C122,619.027469 121.821023,619.511498 121.463068,619.877624 L115.479261,626.418233 C114.769318,627.193922 113.611932,627.193922 112.901989,626.418233 C112.192045,625.642544 112.192045,624.389031 112.901989,623.613342 L115.777557,620.485764 L102.831534,620.485764 C101.81733,620.485764 101,619.598376 101,618.5 C101,617.401624 101.81733,616.514236 102.825568,616.514236 L115.771591,616.514236 L112.896023,613.386658 C112.18608,612.610969 112.18608,611.357456 112.896023,610.581767 C113.611932,609.806078 114.763352,609.806078 115.479261,610.581767 Z"
                    id="Shape-Copy"
                  />
                </g>
              </g>
            </g>
          </svg>
        </div>
      </a>
    </div>
    <div
      className={undefined}
    >
      <span
        className={undefined}
      >
        No Stopped Devices
      </span>
    </div>
  </div>
</div>
`;

exports[`renders Devices with warning correctly 1`] = `
<div
  className={undefined}
>
  <div
    className={undefined}
    data-test-id="loadingspinner-icon"
  >
    <div
      className={undefined}
    />
  </div>
</div>
`;
